Practical-04-Combinational Logic 3-Behavioural/Task02-03-if_statements_and_latching/simulation/qsim/behavioural.msim.vcd
$comment
	File created using the following command:
		vcd file behavioural.msim.vcd -direction
$end
$date
	Tue Oct 21 10:56:42 2014
$end
$version
	ModelSim Version 10.1d
$end
$timescale
	1ps
$end
$scope module behavioural_vlg_vec_tst $end
$var reg 1 ! DATA $end
$var reg 1 " EN $end
$var wire 1 # Y $end
$var wire 1 $ sampler $end
$scope module i1 $end
$var wire 1 % gnd $end
$var wire 1 & vcc $end
$var wire 1 ' unknown $end
$var tri1 1 ( devclrn $end
$var tri1 1 ) devpor $end
$var tri1 1 * devoe $end
$var wire 1 + Y~output_o $end
$var wire 1 , DATA~input_o $end
$var wire 1 - EN~input_o $end
$var wire 1 . inst|Q~combout $end
$upscope $end
$upscope $end
$enddefinitions $end
#0
$dumpvars
0!
1"
0#
x$
0%
1&
x'
1(
1)
1*
0+
0,
1-
0.
$end
#10000
1!
0"
1,
0-
0$
#20000
0!
0,
1$
#40000
1!
1,
0$
#50000
0!
0,
1$
#60000
1"
1-
0$
#70000
1!
1,
1$
1.
1+
1#
#110000
0"
0!
0-
0,
0$
#130000
1!
1,
1$
#160000
1"
0!
1-
0,
0$
0.
0+
0#
#170000
1!
1,
1$
1.
1+
1#
#180000
0!
0,
0$
0.
0+
0#
#210000
0"
1!
0-
1,
1$
#230000
0!
0,
0$
#260000
1"
1-
1$
#270000
1!
1,
0$
1.
1+
1#
#280000
0!
0,
1$
0.
0+
0#
#300000
1!
1,
0$
1.
1+
1#
#310000
0"
0!
0-
0,
1$
#350000
1!
1,
0$
#360000
1"
0!
1-
0,
1$
0.
0+
0#
#370000
1!
1,
0$
1.
1+
1#
#380000
0!
0,
1$
0.
0+
0#
#410000
0"
0-
0$
#430000
1!
1,
1$
#450000
0!
0,
0$
#460000
1"
1-
1$
#470000
1!
1,
0$
1.
1+
1#
#480000
0!
0,
1$
0.
0+
0#
#510000
0"
1!
0-
1,
0$
#530000
0!
0,
1$
#560000
1"
1-
0$
#580000
1!
1,
1$
1.
1+
1#
#590000
0!
0,
0$
0.
0+
0#
#600000
1!
1,
1$
1.
1+
1#
#610000
0"
0!
0-
0,
0$
#640000
1!
1,
1$
#660000
1"
0!
1-
0,
0$
0.
0+
0#
#680000
1!
1,
1$
1.
1+
1#
#690000
0!
0,
0$
0.
0+
0#
#710000
0"
1!
0-
1,
1$
#740000
0!
0,
0$
#760000
1"
1!
1-
1,
1$
1.
1+
1#
#780000
0!
0,
0$
0.
0+
0#
#810000
0"
1!
0-
1,
1$
#830000
0!
0,
0$
#850000
1!
1,
1$
#860000
1"
0!
1-
0,
0$
#880000
1!
1,
1$
1.
1+
1#
#890000
0!
0,
0$
0.
0+
0#
#900000
1!
1,
1$
1.
1+
1#
#910000
0"
0-
0$
#920000
0!
0,
1$
#940000
1!
1,
0$
#960000
1"
0!
1-
0,
1$
0.
0+
0#
#980000
1!
1,
0$
1.
1+
1#
#990000
0!
0,
1$
0.
0+
0#
