Practical-04-Combinational Logic 3-Behavioural/Task03-01-for_loop/simulation/qsim/behavioural.msim.vcd
$comment
	File created using the following command:
		vcd file behavioural.msim.vcd -direction
$end
$date
	Mon Oct 20 22:42:33 2014
$end
$version
	ModelSim Version 10.1d
$end
$timescale
	1ps
$end
$scope module behavioural_vlg_vec_tst $end
$var reg 16 ! X [15:0] $end
$var wire 1 " Y [15] $end
$var wire 1 # Y [14] $end
$var wire 1 $ Y [13] $end
$var wire 1 % Y [12] $end
$var wire 1 & Y [11] $end
$var wire 1 ' Y [10] $end
$var wire 1 ( Y [9] $end
$var wire 1 ) Y [8] $end
$var wire 1 * Y [7] $end
$var wire 1 + Y [6] $end
$var wire 1 , Y [5] $end
$var wire 1 - Y [4] $end
$var wire 1 . Y [3] $end
$var wire 1 / Y [2] $end
$var wire 1 0 Y [1] $end
$var wire 1 1 Y [0] $end
$var wire 1 2 sampler $end
$scope module i1 $end
$var wire 1 3 gnd $end
$var wire 1 4 vcc $end
$var wire 1 5 unknown $end
$var tri1 1 6 devclrn $end
$var tri1 1 7 devpor $end
$var tri1 1 8 devoe $end
$var wire 1 9 Y[15]~output_o $end
$var wire 1 : Y[14]~output_o $end
$var wire 1 ; Y[13]~output_o $end
$var wire 1 < Y[12]~output_o $end
$var wire 1 = Y[11]~output_o $end
$var wire 1 > Y[10]~output_o $end
$var wire 1 ? Y[9]~output_o $end
$var wire 1 @ Y[8]~output_o $end
$var wire 1 A Y[7]~output_o $end
$var wire 1 B Y[6]~output_o $end
$var wire 1 C Y[5]~output_o $end
$var wire 1 D Y[4]~output_o $end
$var wire 1 E Y[3]~output_o $end
$var wire 1 F Y[2]~output_o $end
$var wire 1 G Y[1]~output_o $end
$var wire 1 H Y[0]~output_o $end
$var wire 1 I X[0]~input_o $end
$var wire 1 J X[1]~input_o $end
$var wire 1 K X[2]~input_o $end
$var wire 1 L X[3]~input_o $end
$var wire 1 M X[4]~input_o $end
$var wire 1 N X[5]~input_o $end
$var wire 1 O X[6]~input_o $end
$var wire 1 P X[7]~input_o $end
$var wire 1 Q X[8]~input_o $end
$var wire 1 R X[9]~input_o $end
$var wire 1 S X[10]~input_o $end
$var wire 1 T X[11]~input_o $end
$var wire 1 U X[12]~input_o $end
$var wire 1 V X[13]~input_o $end
$var wire 1 W X[14]~input_o $end
$var wire 1 X X[15]~input_o $end
$upscope $end
$upscope $end
$enddefinitions $end
#0
$dumpvars
b0 !
01
00
0/
0.
0-
0,
0+
0*
0)
0(
0'
0&
0%
0$
0#
0"
x2
03
14
x5
16
17
18
09
0:
0;
0<
0=
0>
0?
0@
0A
0B
0C
0D
0E
0F
0G
0H
0I
0J
0K
0L
0M
0N
0O
0P
0Q
0R
0S
0T
0U
0V
0W
0X
$end
#10000
b1 !
02
1I
19
1"
#20000
b11 !
b10 !
12
0I
1J
09
1:
0"
1#
#30000
b11 !
02
1I
19
1"
#40000
b111 !
b101 !
b100 !
12
0I
0J
1K
09
0:
1;
0"
0#
1$
#50000
b101 !
02
1I
19
1"
#60000
b111 !
b110 !
12
0I
1J
09
1:
0"
1#
#70000
b111 !
02
1I
19
1"
#80000
b1111 !
b1011 !
b1001 !
b1000 !
12
0I
0J
0K
1L
09
0:
0;
1<
0"
0#
0$
1%
#90000
b1001 !
02
1I
19
1"
#100000
b1011 !
b1010 !
12
0I
1J
09
1:
0"
1#
#110000
b1011 !
02
1I
19
1"
#120000
b1111 !
b1101 !
b1100 !
12
0I
0J
1K
09
0:
1;
0"
0#
1$
#130000
b1101 !
02
1I
19
1"
#140000
b1111 !
b1110 !
12
0I
1J
09
1:
0"
1#
#150000
b1111 !
02
1I
19
1"
#160000
b11111 !
b10111 !
b10011 !
b10001 !
b10000 !
12
0I
0J
0K
0L
1M
09
0:
0;
0<
1=
0"
0#
0$
0%
1&
#170000
b10001 !
02
1I
19
1"
#180000
b10011 !
b10010 !
12
0I
1J
09
1:
0"
1#
#190000
b10011 !
02
1I
19
1"
#200000
b10111 !
b10101 !
b10100 !
12
0I
0J
1K
09
0:
1;
0"
0#
1$
#210000
b10101 !
02
1I
19
1"
#220000
b10111 !
b10110 !
12
0I
1J
09
1:
0"
1#
#230000
b10111 !
02
1I
19
1"
#240000
b11111 !
b11011 !
b11001 !
b11000 !
12
0I
0J
0K
1L
09
0:
0;
1<
0"
0#
0$
1%
#250000
b11001 !
02
1I
19
1"
#260000
b11011 !
b11010 !
12
0I
1J
09
1:
0"
1#
#270000
b11011 !
02
1I
19
1"
#280000
b11111 !
b11101 !
b11100 !
12
0I
0J
1K
09
0:
1;
0"
0#
1$
#290000
b11101 !
02
1I
19
1"
#300000
b11111 !
b11110 !
12
0I
1J
09
1:
0"
1#
#310000
b11111 !
02
1I
19
1"
#320000
b111111 !
b101111 !
b100111 !
b100011 !
b100001 !
b100000 !
12
0I
0J
0K
0L
0M
1N
09
0:
0;
0<
0=
1>
0"
0#
0$
0%
0&
1'
#330000
b100001 !
02
1I
19
1"
#340000
b100011 !
b100010 !
12
0I
1J
09
1:
0"
1#
#350000
b100011 !
02
1I
19
1"
#360000
b100111 !
b100101 !
b100100 !
12
0I
0J
1K
09
0:
1;
0"
0#
1$
#370000
b100101 !
02
1I
19
1"
#380000
b100111 !
b100110 !
12
0I
1J
09
1:
0"
1#
#390000
b100111 !
02
1I
19
1"
#400000
b101111 !
b101011 !
b101001 !
b101000 !
12
0I
0J
0K
1L
09
0:
0;
1<
0"
0#
0$
1%
#410000
b101001 !
02
1I
19
1"
#420000
b101011 !
b101010 !
12
0I
1J
09
1:
0"
1#
#430000
b101011 !
02
1I
19
1"
#440000
b101111 !
b101101 !
b101100 !
12
0I
0J
1K
09
0:
1;
0"
0#
1$
#450000
b101101 !
02
1I
19
1"
#460000
b101111 !
b101110 !
12
0I
1J
09
1:
0"
1#
#470000
b101111 !
02
1I
19
1"
#480000
b111111 !
b110111 !
b110011 !
b110001 !
b110000 !
12
0I
0J
0K
0L
1M
09
0:
0;
0<
1=
0"
0#
0$
0%
1&
#490000
b110001 !
02
1I
19
1"
#500000
b110011 !
b110010 !
12
0I
1J
09
1:
0"
1#
#510000
b110011 !
02
1I
19
1"
#520000
b110111 !
b110101 !
b110100 !
12
0I
0J
1K
09
0:
1;
0"
0#
1$
#530000
b110101 !
02
1I
19
1"
#540000
b110111 !
b110110 !
12
0I
1J
09
1:
0"
1#
#550000
b110111 !
02
1I
19
1"
#560000
b111111 !
b111011 !
b111001 !
b111000 !
12
0I
0J
0K
1L
09
0:
0;
1<
0"
0#
0$
1%
#570000
b111001 !
02
1I
19
1"
#580000
b111011 !
b111010 !
12
0I
1J
09
1:
0"
1#
#590000
b111011 !
02
1I
19
1"
#600000
b111111 !
b111101 !
b111100 !
12
0I
0J
1K
09
0:
1;
0"
0#
1$
#610000
b111101 !
02
1I
19
1"
#620000
b111111 !
b111110 !
12
0I
1J
09
1:
0"
1#
#630000
b111111 !
02
1I
19
1"
#640000
b1111111 !
b1011111 !
b1001111 !
b1000111 !
b1000011 !
b1000001 !
b1000000 !
12
0I
0J
0K
0L
0M
0N
1O
09
0:
0;
0<
0=
0>
1?
0"
0#
0$
0%
0&
0'
1(
#650000
b1000001 !
02
1I
19
1"
#660000
b1000011 !
b1000010 !
12
0I
1J
09
1:
0"
1#
#670000
b1000011 !
02
1I
19
1"
#680000
b1000111 !
b1000101 !
b1000100 !
12
0I
0J
1K
09
0:
1;
0"
0#
1$
#690000
b1000101 !
02
1I
19
1"
#700000
b1000111 !
b1000110 !
12
0I
1J
09
1:
0"
1#
#710000
b1000111 !
02
1I
19
1"
#720000
b1001111 !
b1001011 !
b1001001 !
b1001000 !
12
0I
0J
0K
1L
09
0:
0;
1<
0"
0#
0$
1%
#730000
b1001001 !
02
1I
19
1"
#740000
b1001011 !
b1001010 !
12
0I
1J
09
1:
0"
1#
#750000
b1001011 !
02
1I
19
1"
#760000
b1001111 !
b1001101 !
b1001100 !
12
0I
0J
1K
09
0:
1;
0"
0#
1$
#770000
b1001101 !
02
1I
19
1"
#780000
b1001111 !
b1001110 !
12
0I
1J
09
1:
0"
1#
#790000
b1001111 !
02
1I
19
1"
#800000
b1011111 !
b1010111 !
b1010011 !
b1010001 !
b1010000 !
12
0I
0J
0K
0L
1M
09
0:
0;
0<
1=
0"
0#
0$
0%
1&
#810000
b1010001 !
02
1I
19
1"
#820000
b1010011 !
b1010010 !
12
0I
1J
09
1:
0"
1#
#830000
b1010011 !
02
1I
19
1"
#840000
b1010111 !
b1010101 !
b1010100 !
12
0I
0J
1K
09
0:
1;
0"
0#
1$
#850000
b1010101 !
02
1I
19
1"
#860000
b1010111 !
b1010110 !
12
0I
1J
09
1:
0"
1#
#870000
b1010111 !
02
1I
19
1"
#880000
b1011111 !
b1011011 !
b1011001 !
b1011000 !
12
0I
0J
0K
1L
09
0:
0;
1<
0"
0#
0$
1%
#890000
b1011001 !
02
1I
19
1"
#900000
b1011011 !
b1011010 !
12
0I
1J
09
1:
0"
1#
#910000
b1011011 !
02
1I
19
1"
#920000
b1011111 !
b1011101 !
b1011100 !
12
0I
0J
1K
09
0:
1;
0"
0#
1$
#930000
b1011101 !
02
1I
19
1"
#940000
b1011111 !
b1011110 !
12
0I
1J
09
1:
0"
1#
#950000
b1011111 !
02
1I
19
1"
#960000
b1111111 !
b1101111 !
b1100111 !
b1100011 !
b1100001 !
b1100000 !
12
0I
0J
0K
0L
0M
1N
09
0:
0;
0<
0=
1>
0"
0#
0$
0%
0&
1'
#970000
b1100001 !
02
1I
19
1"
#980000
b1100011 !
b1100010 !
12
0I
1J
09
1:
0"
1#
#990000
b1100011 !
02
1I
19
1"
