Practical-04-Combinational Logic 3-Behavioural/Task03-02-for_loop_bit_counter/simulation/qsim/behavioural.msim.vcd
$comment
	File created using the following command:
		vcd file behavioural.msim.vcd -direction
$end
$date
	Tue Oct 21 11:33:53 2014
$end
$version
	ModelSim Version 10.1d
$end
$timescale
	1ps
$end
$scope module behavioural_vlg_vec_tst $end
$var reg 16 ! X [15:0] $end
$var wire 1 " Y [15] $end
$var wire 1 # Y [14] $end
$var wire 1 $ Y [13] $end
$var wire 1 % Y [12] $end
$var wire 1 & Y [11] $end
$var wire 1 ' Y [10] $end
$var wire 1 ( Y [9] $end
$var wire 1 ) Y [8] $end
$var wire 1 * Y [7] $end
$var wire 1 + Y [6] $end
$var wire 1 , Y [5] $end
$var wire 1 - Y [4] $end
$var wire 1 . Y [3] $end
$var wire 1 / Y [2] $end
$var wire 1 0 Y [1] $end
$var wire 1 1 Y [0] $end
$var wire 1 2 sampler $end
$scope module i1 $end
$var wire 1 3 gnd $end
$var wire 1 4 vcc $end
$var wire 1 5 unknown $end
$var tri1 1 6 devclrn $end
$var tri1 1 7 devpor $end
$var tri1 1 8 devoe $end
$var wire 1 9 Y[15]~output_o $end
$var wire 1 : Y[14]~output_o $end
$var wire 1 ; Y[13]~output_o $end
$var wire 1 < Y[12]~output_o $end
$var wire 1 = Y[11]~output_o $end
$var wire 1 > Y[10]~output_o $end
$var wire 1 ? Y[9]~output_o $end
$var wire 1 @ Y[8]~output_o $end
$var wire 1 A Y[7]~output_o $end
$var wire 1 B Y[6]~output_o $end
$var wire 1 C Y[5]~output_o $end
$var wire 1 D Y[4]~output_o $end
$var wire 1 E Y[3]~output_o $end
$var wire 1 F Y[2]~output_o $end
$var wire 1 G Y[1]~output_o $end
$var wire 1 H Y[0]~output_o $end
$var wire 1 I X[10]~input_o $end
$var wire 1 J X[11]~input_o $end
$var wire 1 K X[15]~input_o $end
$var wire 1 L X[12]~input_o $end
$var wire 1 M X[13]~input_o $end
$var wire 1 N X[14]~input_o $end
$var wire 1 O inst|Nbits~2_combout $end
$var wire 1 P inst|Nbits~3_combout $end
$var wire 1 Q inst|Nbits~0_combout $end
$var wire 1 R inst|Nbits~1_combout $end
$var wire 1 S inst|Nbits~4_combout $end
$var wire 1 T inst|Nbits~5_combout $end
$var wire 1 U X[9]~input_o $end
$var wire 1 V inst|Nbits~6_combout $end
$var wire 1 W inst|Add5~1 $end
$var wire 1 X inst|Add5~3 $end
$var wire 1 Y inst|Add5~5 $end
$var wire 1 Z inst|Add5~6_combout $end
$var wire 1 [ inst|Add5~4_combout $end
$var wire 1 \ inst|Add5~2_combout $end
$var wire 1 ] X[8]~input_o $end
$var wire 1 ^ inst|Add5~0_combout $end
$var wire 1 _ inst|Add6~1 $end
$var wire 1 ` inst|Add6~3 $end
$var wire 1 a inst|Add6~5 $end
$var wire 1 b inst|Add6~7 $end
$var wire 1 c inst|Add6~8_combout $end
$var wire 1 d inst|Add6~6_combout $end
$var wire 1 e inst|Add6~4_combout $end
$var wire 1 f inst|Add6~2_combout $end
$var wire 1 g inst|Add6~0_combout $end
$var wire 1 h X[7]~input_o $end
$var wire 1 i inst|Add7~1 $end
$var wire 1 j inst|Add7~3 $end
$var wire 1 k inst|Add7~5 $end
$var wire 1 l inst|Add7~7 $end
$var wire 1 m inst|Add7~9 $end
$var wire 1 n inst|Add7~10_combout $end
$var wire 1 o inst|Add7~8_combout $end
$var wire 1 p inst|Add7~6_combout $end
$var wire 1 q inst|Add7~4_combout $end
$var wire 1 r inst|Add7~2_combout $end
$var wire 1 s X[6]~input_o $end
$var wire 1 t inst|Add7~0_combout $end
$var wire 1 u inst|Add8~1 $end
$var wire 1 v inst|Add8~3 $end
$var wire 1 w inst|Add8~5 $end
$var wire 1 x inst|Add8~7 $end
$var wire 1 y inst|Add8~9 $end
$var wire 1 z inst|Add8~11 $end
$var wire 1 { inst|Add8~12_combout $end
$var wire 1 | inst|Add8~10_combout $end
$var wire 1 } inst|Add8~8_combout $end
$var wire 1 ~ inst|Add8~6_combout $end
$var wire 1 !! inst|Add8~4_combout $end
$var wire 1 "! inst|Add8~2_combout $end
$var wire 1 #! X[5]~input_o $end
$var wire 1 $! inst|Add8~0_combout $end
$var wire 1 %! inst|Add9~1 $end
$var wire 1 &! inst|Add9~3 $end
$var wire 1 '! inst|Add9~5 $end
$var wire 1 (! inst|Add9~7 $end
$var wire 1 )! inst|Add9~9 $end
$var wire 1 *! inst|Add9~11 $end
$var wire 1 +! inst|Add9~13 $end
$var wire 1 ,! inst|Add9~14_combout $end
$var wire 1 -! inst|Add9~12_combout $end
$var wire 1 .! inst|Add9~10_combout $end
$var wire 1 /! inst|Add9~8_combout $end
$var wire 1 0! inst|Add9~6_combout $end
$var wire 1 1! inst|Add9~4_combout $end
$var wire 1 2! inst|Add9~2_combout $end
$var wire 1 3! X[4]~input_o $end
$var wire 1 4! inst|Add9~0_combout $end
$var wire 1 5! inst|Add10~1 $end
$var wire 1 6! inst|Add10~3 $end
$var wire 1 7! inst|Add10~5 $end
$var wire 1 8! inst|Add10~7 $end
$var wire 1 9! inst|Add10~9 $end
$var wire 1 :! inst|Add10~11 $end
$var wire 1 ;! inst|Add10~13 $end
$var wire 1 <! inst|Add10~15 $end
$var wire 1 =! inst|Add10~16_combout $end
$var wire 1 >! inst|Add10~14_combout $end
$var wire 1 ?! inst|Add10~12_combout $end
$var wire 1 @! inst|Add10~10_combout $end
$var wire 1 A! inst|Add10~8_combout $end
$var wire 1 B! inst|Add10~6_combout $end
$var wire 1 C! inst|Add10~4_combout $end
$var wire 1 D! inst|Add10~2_combout $end
$var wire 1 E! inst|Add10~0_combout $end
$var wire 1 F! X[3]~input_o $end
$var wire 1 G! inst|Add11~1 $end
$var wire 1 H! inst|Add11~3 $end
$var wire 1 I! inst|Add11~5 $end
$var wire 1 J! inst|Add11~7 $end
$var wire 1 K! inst|Add11~9 $end
$var wire 1 L! inst|Add11~11 $end
$var wire 1 M! inst|Add11~13 $end
$var wire 1 N! inst|Add11~15 $end
$var wire 1 O! inst|Add11~17 $end
$var wire 1 P! inst|Add11~18_combout $end
$var wire 1 Q! inst|Add11~16_combout $end
$var wire 1 R! inst|Add11~14_combout $end
$var wire 1 S! inst|Add11~12_combout $end
$var wire 1 T! inst|Add11~10_combout $end
$var wire 1 U! inst|Add11~8_combout $end
$var wire 1 V! inst|Add11~6_combout $end
$var wire 1 W! inst|Add11~4_combout $end
$var wire 1 X! inst|Add11~2_combout $end
$var wire 1 Y! inst|Add11~0_combout $end
$var wire 1 Z! X[2]~input_o $end
$var wire 1 [! inst|Add12~1 $end
$var wire 1 \! inst|Add12~3 $end
$var wire 1 ]! inst|Add12~5 $end
$var wire 1 ^! inst|Add12~7 $end
$var wire 1 _! inst|Add12~9 $end
$var wire 1 `! inst|Add12~11 $end
$var wire 1 a! inst|Add12~13 $end
$var wire 1 b! inst|Add12~15 $end
$var wire 1 c! inst|Add12~17 $end
$var wire 1 d! inst|Add12~19 $end
$var wire 1 e! inst|Add12~20_combout $end
$var wire 1 f! inst|Add12~18_combout $end
$var wire 1 g! inst|Add12~16_combout $end
$var wire 1 h! inst|Add12~14_combout $end
$var wire 1 i! inst|Add12~12_combout $end
$var wire 1 j! inst|Add12~10_combout $end
$var wire 1 k! inst|Add12~8_combout $end
$var wire 1 l! inst|Add12~6_combout $end
$var wire 1 m! inst|Add12~4_combout $end
$var wire 1 n! inst|Add12~2_combout $end
$var wire 1 o! inst|Add12~0_combout $end
$var wire 1 p! X[1]~input_o $end
$var wire 1 q! inst|Add13~1 $end
$var wire 1 r! inst|Add13~3 $end
$var wire 1 s! inst|Add13~5 $end
$var wire 1 t! inst|Add13~7 $end
$var wire 1 u! inst|Add13~9 $end
$var wire 1 v! inst|Add13~11 $end
$var wire 1 w! inst|Add13~13 $end
$var wire 1 x! inst|Add13~15 $end
$var wire 1 y! inst|Add13~17 $end
$var wire 1 z! inst|Add13~19 $end
$var wire 1 {! inst|Add13~21 $end
$var wire 1 |! inst|Add13~22_combout $end
$var wire 1 }! inst|Add13~20_combout $end
$var wire 1 ~! inst|Add13~18_combout $end
$var wire 1 !" inst|Add13~16_combout $end
$var wire 1 "" inst|Add13~14_combout $end
$var wire 1 #" inst|Add13~12_combout $end
$var wire 1 $" inst|Add13~10_combout $end
$var wire 1 %" inst|Add13~8_combout $end
$var wire 1 &" inst|Add13~6_combout $end
$var wire 1 '" inst|Add13~4_combout $end
$var wire 1 (" inst|Add13~2_combout $end
$var wire 1 )" X[0]~input_o $end
$var wire 1 *" inst|Add13~0_combout $end
$var wire 1 +" inst|Add14~1 $end
$var wire 1 ," inst|Add14~3 $end
$var wire 1 -" inst|Add14~5 $end
$var wire 1 ." inst|Add14~7 $end
$var wire 1 /" inst|Add14~9 $end
$var wire 1 0" inst|Add14~11 $end
$var wire 1 1" inst|Add14~13 $end
$var wire 1 2" inst|Add14~15 $end
$var wire 1 3" inst|Add14~17 $end
$var wire 1 4" inst|Add14~19 $end
$var wire 1 5" inst|Add14~21 $end
$var wire 1 6" inst|Add14~23 $end
$var wire 1 7" inst|Add14~24_combout $end
$var wire 1 8" inst|Add14~22_combout $end
$var wire 1 9" inst|Add14~20_combout $end
$var wire 1 :" inst|Add14~18_combout $end
$var wire 1 ;" inst|Add14~16_combout $end
$var wire 1 <" inst|Add14~14_combout $end
$var wire 1 =" inst|Add14~12_combout $end
$var wire 1 >" inst|Add14~10_combout $end
$var wire 1 ?" inst|Add14~8_combout $end
$var wire 1 @" inst|Add14~6_combout $end
$var wire 1 A" inst|Add14~4_combout $end
$var wire 1 B" inst|Add14~2_combout $end
$var wire 1 C" inst|Add14~0_combout $end
$upscope $end
$upscope $end
$enddefinitions $end
#0
$dumpvars
b1010001100001010 !
01
10
1/
0.
0-
0,
0+
0*
0)
0(
0'
0&
0%
0$
0#
0"
x2
03
14
x5
16
17
18
09
0:
0;
0<
0=
0>
0?
0@
0A
0B
0C
0D
0E
1F
1G
0H
0I
0J
1K
0L
1M
0N
0O
0P
0Q
1R
0S
1T
1U
0V
0W
1X
0Y
0Z
0[
1\
1]
1^
1_
0`
0a
1b
0c
0d
1e
0f
0g
0h
0i
1j
0k
1l
0m
0n
0o
0p
1q
0r
0s
0t
0u
1v
0w
1x
0y
1z
0{
0|
0}
0~
1!!
0"!
0#!
0$!
0%!
1&!
0'!
1(!
0)!
1*!
0+!
0,!
0-!
0.!
0/!
00!
11!
02!
03!
04!
05!
16!
07!
18!
09!
1:!
0;!
1<!
0=!
0>!
0?!
0@!
0A!
0B!
1C!
0D!
0E!
1F!
0G!
1H!
0I!
1J!
0K!
1L!
0M!
1N!
0O!
0P!
0Q!
0R!
0S!
0T!
0U!
0V!
1W!
0X!
1Y!
0Z!
0[!
1\!
0]!
1^!
0_!
1`!
0a!
1b!
0c!
1d!
0e!
0f!
0g!
0h!
0i!
0j!
0k!
0l!
1m!
0n!
1o!
1p!
1q!
1r!
0s!
1t!
0u!
1v!
0w!
1x!
0y!
1z!
0{!
0|!
0}!
0~!
0!"
0""
0#"
0$"
0%"
0&"
1'"
1("
0)"
0*"
0+"
1,"
0-"
1."
0/"
10"
01"
12"
03"
14"
05"
16"
07"
08"
09"
0:"
0;"
0<"
0="
0>"
0?"
0@"
1A"
1B"
0C"
$end
#40000
b1110001100001010 !
b1111001100001010 !
b1111101100001010 !
b1111100100001010 !
b1111100000001010 !
b1111100001001010 !
b1111100001101010 !
b1111100001101011 !
1)"
1#!
1s
0]
0U
1J
1L
1N
02
14!
1$!
0_
1g
0^
1V
0R
1Q
1C"
1E!
1%!
04!
1`
1f
1t
0g
1^
0T
1S
1H
11
1G!
0Y!
12!
0E!
0e
1r
1u
0$!
0t
1g
0\
1[
1X!
0o!
1D!
0G!
1Y!
0q
0v
0%!
14!
0u
1$!
1t
0f
1e
1n!
0q!
1*"
1o!
02!
1E!
1v
1"!
1%!
04!
1u
0$!
0r
1q
1+"
1q!
0*"
0D!
1G!
0Y!
0&!
0E!
0%!
14!
0C"
0,"
0r!
0("
0+"
0o!
1'!
01!
0G!
1Y!
1&!
12!
1E!
0H
01
0B"
1C"
1-"
1s!
0'"
1,"
0q!
1*"
10!
0C!
0X!
1o!
0'!
11!
1D!
1G!
0Y!
0G
1H
00
11
0A"
1&"
0-"
1r!
1("
1+"
1B!
0W!
0n!
1q!
0*"
00!
1C!
0H!
0o!
0F
0/
1@"
0C"
0s!
1'"
0,"
1V!
0m!
0+"
0B!
1I!
0q!
1*"
1E
0H
1.
01
1C"
0&"
1-"
1l!
0'"
1,"
0("
1+"
1H
11
1B"
0C"
1&"
0-"
1G
0H
10
01
#80000
b1101100001101011 !
b1101100011101011 !
b1101100011101111 !
b1101101011101111 !
b1101101111101111 !
b1101101111101110 !
0)"
1Z!
1h
1]
1U
0M
12
0+"
1o!
1i
0t
1_
0g
1W
0^
1R
0Q
1O
1C"
1q!
0*"
1r
0u
1$!
1f
0i
1t
1\
0_
1g
0S
0V
1P
1H
11
0B"
1("
1%!
04!
1u
0$!
1i
0t
0[
0W
1^
1S
0G
00
0C"
0&!
02!
0E!
0v
0"!
0%!
14!
0j
0r
0u
1$!
0e
0\
1_
0g
1[
0H
01
1B"
1'!
01!
0D!
0G!
1Y!
1w
0!!
1&!
1E!
1v
1%!
04!
0i
1t
1e
1G
10
10!
0C!
1H!
1[!
0o!
1~
0'!
1G!
0Y!
0w
1!!
12!
0E!
1j
1r
1u
0$!
1k
0q
1B!
0I!
1n!
0q!
1*"
1X!
0[!
1o!
0~
11!
1D!
0G!
1Y!
0k
1q
0v
0%!
14!
1p
0!!
1q!
0*"
00!
1C!
1[!
0o!
0p
1w
02!
1E!
1~
01!
1C"
0r!
0("
0B!
1W!
0\!
0n!
0q!
1*"
0D!
1G!
0Y!
10!
0C!
1H
11
0C"
1'"
0V!
1]!
1r!
0[!
1o!
1B!
0W!
0H
01
0B"
1C"
0'"
1\!
1n!
1q!
0*"
1V!
0]!
1m!
0G
1H
00
11
1A"
0m!
0r!
1'"
1F
1/
0A"
0C"
0F
0H
0/
01
1A"
1F
1/
#120000
b1001101111101110 !
b1001101110101110 !
b1001101110001110 !
b1001101100001110 !
b1001101100001010 !
b1001101000001010 !
b1001101000001011 !
1)"
0Z!
0#!
0s
0h
0]
0N
02
0o!
04!
0u
1$!
0t
0_
1g
0O
1C"
0q!
1*"
0E!
1v
1"!
14!
0$!
0f
1t
1V
1T
0P
1H
11
1r!
1("
1+"
0G!
1Y!
0w
1!!
12!
1E!
04!
0r
1$!
1W
0^
1\
0S
0C"
0'"
0,"
0X!
1o!
0~
11!
1D!
1G!
0Y!
0E!
0"!
14!
0X
0\
0g
1f
0[
0H
01
0n!
1q!
0*"
00!
1C!
0H!
0o!
0G!
1Y!
02!
1E!
1[
0f
0t
1r
0e
0+"
0B!
1I!
0q!
1*"
1H!
1X!
1o!
0D!
1G!
0Y!
1e
0r
0$!
1"!
0q
1C"
1,"
0("
1+"
0I!
1W!
1n!
1q!
0*"
0o!
1q
0"!
04!
12!
0!!
1H
11
1B"
0C"
0V!
1m!
0r!
0+"
0q!
1*"
1!!
02!
0E!
1D!
01!
1G
0H
10
01
0A"
1C"
0l!
1s!
1r!
1("
1+"
11!
0D!
0G!
1Y!
0H!
0X!
0C!
0F
1H
0/
11
0B"
0C"
0s!
1'"
0,"
1C!
1H!
1o!
0n!
0G
0H
00
01
0&"
1-"
1q!
0*"
0("
1("
0+"
1,"
1C"
1B"
0-"
1H
1G
11
10
1A"
1F
1/
0@"
0E
0.
#160000
b1001111000001011 !
b1001111000011011 !
b1001111000011001 !
b1001110000011001 !
b1101110000011001 !
b1101110001011001 !
b1101110011011001 !
b1101110011011101 !
b1101110011011100 !
0)"
0p!
1Z!
13!
1s
1h
0U
1I
1N
12
0q!
1*"
1[!
0o!
1E!
1$!
1t
0W
1^
0V
0T
1P
1O
0C"
0("
1n!
0*"
1G!
0Y!
14!
1u
0$!
1X
1g
0^
1S
1V
0H
01
1C"
1("
1X!
0[!
1o!
15!
0E!
1"!
04!
1i
0t
0g
1^
1H
11
0B"
0C"
1*"
1D!
0G!
1Y!
12!
05!
1E!
1r
0u
1$!
0i
1t
1g
0G
0H
00
01
1B"
1[!
0o!
1G!
0Y!
14!
0r
1u
0$!
1i
0t
1G
10
1C"
0\!
0n!
0*"
0H!
0X!
0[!
1o!
15!
0E!
04!
1r
0u
1$!
1H
11
1]!
0m!
0("
1I!
0W!
1\!
1*"
06!
0D!
0G!
1Y!
05!
1E!
14!
0C"
1l!
0'"
1V!
0]!
17!
0C!
1H!
1[!
0o!
16!
1D!
1G!
0Y!
15!
0E!
0H
01
0B"
1C"
1&"
1B!
0I!
1n!
0*"
07!
1C!
0H!
0[!
1o!
06!
0D!
0G!
1Y!
0G
1H
00
11
0A"
1("
0B!
1I!
0n!
1*"
17!
0C!
1H!
1[!
0o!
0F
0/
1@"
0C"
0("
1B!
0I!
1n!
0*"
1E
0H
1.
01
1B"
1C"
1("
1G
1H
10
11
0B"
0C"
0G
0H
00
01
1B"
1G
10
#200000
b1101010011011100 !
b1111010011011100 !
b1111010011111100 !
b1111010111111100 !
b1111010111101100 !
b1111011111101100 !
b1011011111101100 !
b1011011111101000 !
0Z!
03!
1#!
1]
1U
0J
1M
0N
02
0[!
1o!
05!
1E!
1%!
04!
1_
0g
1W
0^
0V
0n!
1*"
16!
1D!
1G!
0Y!
0&!
02!
0E!
1f
0i
1t
1\
0_
1g
0W
1^
0("
07!
1C!
0H!
0o!
1'!
01!
0D!
0G!
1Y!
1u
0$!
1i
0t
0\
1_
0g
1C"
0B!
1I!
0*"
10!
0C!
1H!
1o!
0v
0"!
0%!
14!
0j
0r
0u
1$!
0i
1t
1H
11
0B"
1B!
0I!
1*"
1w
0!!
1&!
1E!
1k
0q
1v
1%!
04!
1j
1r
1u
0$!
0G
00
0C"
1~
0'!
1G!
0Y!
1p
0w
12!
0E!
0k
1q
0v
0%!
14!
0H
01
1C"
1X!
0o!
1D!
0G!
1Y!
0p
1w
02!
1E!
1H
11
1n!
0*"
1o!
0D!
1G!
0Y!
1("
1*"
0o!
0C"
0*"
0H
01
1B"
1C"
1G
1H
10
11
0C"
0H
01
#240000
b1011011111100000 !
b1010011111100000 !
b1010011111100010 !
b1010011111100011 !
b1010011111000011 !
b1010011011000011 !
b1010011011010011 !
b1010010011010011 !
b1110010011010011 !
1)"
1p!
0F!
13!
0#!
0]
0U
0L
1N
12
1*"
0G!
1Y!
15!
0E!
04!
0_
1g
0^
1C"
1+"
0X!
1o!
1D!
0Y!
05!
1E!
0f
1i
0t
0g
1H
11
0C"
0,"
0n!
1q!
0*"
1X!
0o!
0D!
1Y!
0u
1$!
0i
1t
0H
01
0B"
0+"
1n!
0q!
1*"
0X!
1o!
1v
1"!
14!
0r
1u
0$!
0G
00
1A"
1C"
1,"
1+"
0n!
1q!
0*"
0w
1!!
12!
15!
0E!
04!
1F
1H
1/
11
1B"
0C"
0,"
0+"
0~
11!
06!
0Y!
05!
1E!
1G
0H
10
01
0A"
0B"
1C"
1,"
00!
17!
0o!
16!
1D!
1Y!
0F
0G
1H
0/
00
11
1A"
1B"
0q!
1*"
07!
1C!
1X!
1o!
1F
1G
1/
10
0A"
0("
1+"
0B!
1W!
1n!
1q!
0*"
0F
0/
0C"
0V!
1m!
0r!
0+"
0H
01
1C"
0l!
1s!
1H
11
0B"
0G
00
#280000
b1110010001010011 !
b1110110001010011 !
b1110110001010001 !
b1110110001010000 !
b1010110001010000 !
0)"
0p!
0h
1J
0N
02
0q!
1*"
0t
1V
0O
0C"
1r!
1("
0u
1$!
1^
0V
0H
01
1C"
0s!
1'"
0"!
14!
1g
0^
1H
11
1B"
0&"
02!
15!
0E!
1t
0g
1G
10
1A"
0Y!
1u
0$!
0t
1F
1/
0@"
0o!
1"!
04!
0u
1$!
0E
0.
0*"
12!
05!
1E!
0"!
14!
1Y!
02!
15!
0E!
0C"
1o!
0Y!
0H
01
1*"
0o!
0*"
1C"
1H
11
0C"
0H
01
#320000
b10110001010000 !
b10110000010000 !
b110000010000 !
b110000010100 !
b1110000010100 !
b1110100010100 !
b1110100000100 !
b1110110000100 !
b1010110000100 !
b101010110000100 !
1Z!
03!
0s
1h
1]
0J
1L
0M
1N
0K
12
1o!
05!
1E!
0$!
1t
1g
1V
1T
0P
1*"
0D!
1Y!
04!
1$!
1i
0t
1^
1\
0S
0X!
1[!
0o!
0E!
14!
1r
0$!
1_
0g
1f
0[
1C"
0*"
0Y!
1E!
1"!
04!
0`
0f
0i
1t
0j
0r
0e
1H
11
0[!
1o!
1Y!
12!
0E!
1e
1j
1$!
0"!
0C"
0n!
1*"
1[!
0o!
1D!
0Y!
14!
02!
0H
01
0("
1n!
0*"
1X!
0[!
1o!
1E!
0D!
1C"
1("
1*"
1Y!
0X!
1H
11
0B"
0C"
1[!
0o!
0n!
0G
0H
00
01
1B"
1C"
1n!
0*"
0("
1G
1H
10
11
1("
0C"
0B"
0H
0G
01
00
1B"
1G
10
#360000
b101000110000100 !
b101000110100100 !
b1101000110100100 !
b1101000111100100 !
b1111000111100100 !
b1111000111110100 !
b1011000111110100 !
13!
1#!
1s
0I
1M
0N
1K
02
15!
0E!
1%!
04!
1u
0$!
0V
1O
1D!
0Y!
12!
05!
1E!
1"!
0%!
14!
0^
1V
1X!
0[!
1o!
1Y!
15!
0E!
0_
1g
1^
1*"
1[!
0o!
06!
0D!
0Y!
1`
1f
1i
0t
1_
0g
0\!
0n!
0*"
17!
0C!
0X!
0[!
1o!
0e
0j
0u
1$!
0`
0f
0i
1t
1C"
1]!
0m!
0("
1B!
0W!
1\!
1*"
0"!
1%!
04!
1e
1j
1u
0$!
1H
11
0C"
1l!
0'"
1V!
0]!
05!
1E!
1"!
0%!
14!
0H
01
0B"
1C"
1&"
16!
1D!
1Y!
15!
0E!
0G
1H
00
11
0A"
07!
1C!
1X!
1[!
0o!
06!
0D!
0Y!
0F
0/
1@"
0B!
1W!
0\!
0*"
17!
0C!
0X!
0[!
1o!
1E
1.
0V!
1]!
1B!
0W!
1\!
1*"
0C"
1V!
0]!
0H
01
1C"
1H
11
#400000
b1011000111110110 !
b1010000111110110 !
b1010000011110110 !
b1010100011110110 !
b1010110011110110 !
b10110011110110 !
b10110010110110 !
b110110010110110 !
1p!
0s
0]
1I
1J
0L
1N
0K
12
1q!
0*"
0u
1$!
0_
1g
0T
1P
0O
1("
0"!
1%!
04!
1`
1f
1i
0t
0\
1S
0V
0C"
05!
1E!
0e
0j
0$!
0f
1[
0^
0H
01
1B"
16!
1D!
1Y!
0%!
14!
1j
1r
1e
0g
1G
10
07!
1C!
1X!
1[!
0o!
02!
15!
0E!
1"!
0i
1t
0B!
1W!
0\!
0q!
1*"
0Y!
12!
0r
1$!
0V!
1]!
0("
0[!
1o!
06!
0D!
0"!
1%!
04!
1C"
1\!
1n!
1q!
0*"
17!
0C!
0X!
05!
1E!
1H
11
0B"
0]!
1m!
0r!
1B!
0W!
0n!
16!
1D!
1Y!
0G
00
0C"
0l!
1s!
1V!
0m!
1r!
1("
07!
1C!
1X!
1[!
0o!
0H
01
1l!
0s!
0B!
1W!
0\!
0q!
1*"
1B"
0V!
1]!
0("
1G
10
1C"
1H
11
0B"
0G
00
#440000
b110111010110110 !
b110111000110110 !
b111111000110110 !
b111011000110110 !
b111001000110110 !
b1111001000110110 !
b1111001001110110 !
b1011001001110110 !
1s
0h
1U
0I
0J
1L
0N
1K
02
1u
0$!
0t
1^
1T
0P
1O
1"!
0%!
14!
0u
1$!
1g
1\
0S
1V
15!
0E!
0"!
1%!
04!
1t
1f
0[
1W
0^
06!
0D!
0Y!
05!
1E!
1u
0$!
1r
0e
0X
0\
0g
17!
0C!
0X!
0[!
1o!
16!
1D!
1Y!
0v
0%!
14!
0q
1[
0f
0t
1B!
0W!
1\!
1q!
0*"
07!
1C!
1X!
1[!
0o!
02!
15!
0E!
1e
0r
0u
1$!
1V!
0]!
1("
0B!
1W!
0\!
0q!
1*"
0Y!
1q
1v
1%!
04!
0C"
0V!
1]!
0("
0[!
1o!
12!
05!
1E!
0H
01
1B"
1C"
1\!
1n!
1q!
0*"
1Y!
1G
1H
10
11
0B"
0]!
1m!
0r!
1[!
0o!
0G
00
0C"
0l!
1s!
0\!
0n!
0q!
1*"
0H
01
1]!
0m!
1r!
1C"
1l!
0s!
1H
11
#480000
b1011001001110010 !
b1011001101110010 !
b1011001111110010 !
b1010001111110010 !
b1010001110110010 !
0Z!
0s
1h
1]
0L
12
0[!
1o!
0$!
1t
1g
0O
1\!
1n!
1q!
0*"
0%!
14!
1$!
1i
0t
0V
0]!
1m!
0r!
02!
15!
0E!
1%!
04!
1r
0$!
0W
1^
0C"
0l!
1s!
0Y!
12!
05!
1E!
1"!
0%!
14!
1X
1\
1_
0g
0H
01
0o!
1Y!
15!
0E!
0[
0`
0i
1t
0q!
1*"
1o!
06!
0D!
0Y!
0r
1$!
1r!
1("
1q!
0*"
17!
0C!
0X!
0o!
0"!
1%!
04!
1C"
0s!
1'"
0r!
0("
1B!
0W!
0n!
0q!
1*"
05!
1E!
1H
11
1B"
0C"
0&"
1s!
0'"
1V!
0m!
1r!
16!
1D!
1Y!
1G
0H
10
01
1A"
0B"
1C"
1&"
1l!
0s!
07!
1C!
1X!
1o!
1F
0G
1H
1/
00
11
0@"
0A"
0B!
1W!
1n!
1q!
0*"
0E
0F
0.
0/
1@"
0V!
1m!
0r!
1E
1.
0C"
0l!
1s!
0H
01
#520000
b1010001110111010 !
b1010001110111011 !
b1000001110111011 !
b1000001110101011 !
b1000101110101011 !
b1000111110101011 !
b1000111111101011 !
1)"
1F!
03!
1s
1I
1J
0M
02
1G!
0Y!
0E!
1u
0$!
0T
1P
0R
1O
1C"
0H!
0X!
0o!
0G!
1Y!
1"!
0%!
14!
0\
1T
1V
1H
11
1I!
0W!
0n!
0q!
1*"
1H!
1X!
1o!
1E!
1`
1f
1\
1W
0^
1V!
0m!
1r!
1+"
0I!
1W!
1n!
1q!
0*"
1G!
0Y!
0e
1r
0`
0f
0X
0\
0_
1g
0C"
1l!
0s!
0V!
1m!
0r!
0+"
0H!
0X!
0o!
0q
0v
0"!
1e
0r
1[
1`
1i
0t
0H
01
1B"
1C"
0l!
1s!
1I!
0W!
0n!
0q!
1*"
02!
1q
1v
1"!
1r
0u
1$!
1G
1H
10
11
0B"
1V!
0m!
1r!
1+"
0D!
12!
1%!
04!
0G
00
0C"
1l!
0s!
1H!
1X!
1D!
0&!
02!
0E!
0H
01
1B"
0I!
1W!
1n!
0H!
0X!
1'!
01!
0D!
0G!
1Y!
1G
10
0V!
1m!
1("
1I!
0W!
0n!
10!
0C!
1H!
1o!
0l!
1'"
0,"
1V!
0m!
0("
1B!
0I!
1q!
0*"
0B"
0&"
1-"
1l!
0'"
1,"
1("
0+"
0G
00
1B"
1C"
1&"
0-"
1G
1H
10
11
#560000
b1000111111001011 !
b111111001011 !
b111011001011 !
b111011001010 !
b111011011010 !
b11011011010 !
b1011011010 !
b1010011010 !
0)"
13!
0#!
0s
0]
0I
0J
0K
12
1E!
0%!
14!
0$!
0g
0T
0P
0O
0C"
1G!
0Y!
1&!
12!
15!
0E!
04!
0i
1t
1X
1\
0V
0H
01
1X!
0o!
0'!
11!
06!
0G!
1Y!
05!
1E!
0r
1$!
0[
1f
0W
1^
1n!
0q!
1*"
00!
17!
0X!
1o!
16!
1D!
1G!
0Y!
0"!
14!
0e
1r
0\
1g
0n!
1q!
0*"
07!
1C!
0H!
0o!
02!
15!
0E!
0q
1"!
0f
1i
0t
1C"
0B!
1I!
0q!
1*"
0G!
1Y!
0!!
12!
0$!
1H
11
0C"
0("
1H!
1X!
1o!
01!
06!
0D!
04!
0H
01
1C"
0I!
1W!
1n!
1q!
0*"
0X!
05!
1E!
1H
11
0B"
0V!
1m!
0r!
0n!
16!
1D!
1G!
0Y!
0G
00
0C"
0l!
1s!
1r!
1("
0C!
0H!
0o!
0H
01
0s!
1'"
0q!
1*"
1B"
0&"
0("
1G
10
1A"
1C"
1F
1H
1/
11
0@"
0B"
0E
0G
0.
00
#600000
b1010011110 !
b1000011110 !
b1001000011110 !
b1001000010110 !
b11001000010110 !
b1011001000010110 !
b1011001000000110 !
b1011011000000110 !
1Z!
0F!
03!
0h
1I
1L
1M
1K
02
1o!
0G!
1Y!
0E!
0i
1t
1V
1R
1O
1q!
0*"
1H!
1X!
1[!
0o!
0Y!
0r
1$!
1W
0^
0V
1P
1("
0W!
0\!
0q!
1*"
0[!
1o!
0"!
14!
1\
0g
0W
1^
1S
0C"
0("
1\!
1n!
1q!
0*"
02!
1E!
1f
0t
0\
1g
1[
0H
01
1B"
1C"
0m!
0r!
0D!
1Y!
1r
0$!
0f
1t
1e
1G
1H
10
11
0B"
0C"
0X!
1[!
0o!
1"!
04!
0r
1$!
1q
0G
0H
00
01
0q!
1*"
12!
0E!
0"!
14!
1!!
1r!
1("
1D!
0Y!
02!
1E!
11!
1C"
0'"
1X!
0[!
1o!
0D!
1Y!
1C!
1H
11
1B"
1q!
0*"
0X!
1[!
0o!
1W!
1G
10
0A"
0r!
0("
0q!
1*"
1m!
0F
0/
0C"
1s!
1r!
1("
0H
01
0B"
1C"
1&"
0s!
1'"
0G
1H
00
11
1B"
0&"
1G
10
1@"
1A"
1E
1F
1.
1/
0@"
0E
0.
