Practical-04-Combinational Logic 3-Behavioural/Task02-04-case_statement/simulation/qsim/behavioural.msim.vcd
$comment
	File created using the following command:
		vcd file behavioural.msim.vcd -direction
$end
$date
	Tue Oct 21 10:58:21 2014
$end
$version
	ModelSim Version 10.1d
$end
$timescale
	1ps
$end
$scope module behavioural_vlg_vec_tst $end
$var reg 16 ! DATA [15:0] $end
$var reg 1 " EN $end
$var reg 3 # SS [2:0] $end
$var wire 1 $ Y $end
$var wire 1 % sampler $end
$scope module i1 $end
$var wire 1 & gnd $end
$var wire 1 ' vcc $end
$var wire 1 ( unknown $end
$var tri1 1 ) devclrn $end
$var tri1 1 * devpor $end
$var tri1 1 + devoe $end
$var wire 1 , EN~input_o $end
$var wire 1 - DATA[15]~input_o $end
$var wire 1 . DATA[14]~input_o $end
$var wire 1 / DATA[13]~input_o $end
$var wire 1 0 DATA[12]~input_o $end
$var wire 1 1 DATA[11]~input_o $end
$var wire 1 2 DATA[10]~input_o $end
$var wire 1 3 DATA[9]~input_o $end
$var wire 1 4 DATA[8]~input_o $end
$var wire 1 5 Y~output_o $end
$var wire 1 6 SS[0]~input_o $end
$var wire 1 7 DATA[1]~input_o $end
$var wire 1 8 SS[1]~input_o $end
$var wire 1 9 DATA[0]~input_o $end
$var wire 1 : inst|Y~2_combout $end
$var wire 1 ; DATA[2]~input_o $end
$var wire 1 < DATA[3]~input_o $end
$var wire 1 = inst|Y~3_combout $end
$var wire 1 > DATA[5]~input_o $end
$var wire 1 ? DATA[4]~input_o $end
$var wire 1 @ DATA[6]~input_o $end
$var wire 1 A inst|Y~0_combout $end
$var wire 1 B DATA[7]~input_o $end
$var wire 1 C inst|Y~1_combout $end
$var wire 1 D SS[2]~input_o $end
$var wire 1 E inst|Y~4_combout $end
$upscope $end
$upscope $end
$enddefinitions $end
#0
$dumpvars
b0 !
0"
b0 #
0$
x%
0&
1'
x(
1)
1*
1+
0,
0-
0.
0/
00
01
02
03
04
05
06
07
08
09
0:
0;
0<
0=
0>
0?
0@
0A
0B
0C
0D
0E
$end
#10000
b1 !
19
0%
1:
1=
1E
15
1$
#20000
b11 !
b10 !
09
17
1%
0:
0=
0E
05
0$
#30000
b11 !
19
0%
1:
1=
1E
15
1$
#40000
b111 !
b101 !
b100 !
09
07
1;
1%
0:
0=
0E
05
0$
#50000
b101 !
19
0%
1:
1=
1E
15
1$
#60000
b111 !
b110 !
09
17
1%
0:
0=
0E
05
0$
#70000
b111 !
19
0%
1:
1=
1E
15
1$
#80000
b1111 !
b1011 !
b1001 !
b1000 !
09
07
0;
1<
1%
0:
0=
0E
05
0$
#90000
b1001 !
19
0%
1:
1=
1E
15
1$
#100000
b1011 !
b1010 !
09
17
1%
0:
0=
0E
05
0$
#110000
b1011 !
19
0%
1:
1=
1E
15
1$
#120000
b1111 !
b1101 !
b1100 !
09
07
1;
1%
0:
0=
0E
05
0$
#130000
b1101 !
19
0%
1:
1=
1E
15
1$
#140000
b1111 !
b1110 !
09
17
1%
0:
0=
0E
05
0$
#150000
b1111 !
19
0%
1:
1=
1E
15
1$
#160000
b11111 !
b10111 !
b10011 !
b10001 !
b10000 !
09
07
0;
0<
1?
1%
0:
1A
0=
1C
0E
05
0$
#170000
b10001 !
19
0%
1:
1=
1E
15
1$
#180000
b10011 !
b10010 !
09
17
1%
0:
0=
0E
05
0$
#190000
b10011 !
19
0%
1:
1=
1E
15
1$
#200000
b1 #
b10111 !
b10101 !
b10100 !
09
07
1;
16
1%
0:
0C
0A
0=
0E
05
0$
#210000
b10101 !
19
0%
#220000
b10111 !
b10110 !
09
17
1%
1:
1=
1E
15
1$
#230000
b10111 !
19
0%
#240000
b11111 !
b11011 !
b11001 !
b11000 !
09
07
0;
1<
1%
0:
0=
0E
05
0$
#250000
b11001 !
19
0%
#260000
b11011 !
b11010 !
09
17
1%
1:
1=
1E
15
1$
#270000
b11011 !
19
0%
#280000
b11111 !
b11101 !
b11100 !
09
07
1;
1%
0:
0=
0E
05
0$
#290000
b11101 !
19
0%
#300000
b11111 !
b11110 !
09
17
1%
1:
1=
1E
15
1$
#310000
b11111 !
19
0%
#320000
b111111 !
b101111 !
b100111 !
b100011 !
b100001 !
b100000 !
09
07
0;
0<
0?
1>
1%
0:
1C
0=
0E
05
0$
#330000
b100001 !
19
0%
#340000
b100011 !
b100010 !
09
17
1%
1:
1=
1E
15
1$
#350000
b100011 !
19
0%
#360000
b100111 !
b100101 !
b100100 !
09
07
1;
1%
0:
0=
0E
05
0$
#370000
b100101 !
19
0%
#380000
b100111 !
b100110 !
09
17
1%
1:
1=
1E
15
1$
#390000
b100111 !
19
0%
#400000
b11 #
b10 #
b101111 !
b101011 !
b101001 !
b101000 !
09
07
0;
1<
06
18
1%
0:
0C
0=
0E
05
0$
#410000
b101001 !
19
0%
#420000
b101011 !
b101010 !
09
17
1%
#430000
b101011 !
19
0%
#440000
b101111 !
b101101 !
b101100 !
09
07
1;
1%
1=
1E
15
1$
#450000
b101101 !
19
0%
#460000
b101111 !
b101110 !
09
17
1%
#470000
b101111 !
19
0%
#480000
b111111 !
b110111 !
b110011 !
b110001 !
b110000 !
09
07
0;
0<
1?
1%
0=
0E
05
0$
#490000
b110001 !
19
0%
#500000
b110011 !
b110010 !
09
17
1%
#510000
b110011 !
19
0%
#520000
b110111 !
b110101 !
b110100 !
09
07
1;
1%
1=
1E
15
1$
#530000
b110101 !
19
0%
#540000
b110111 !
b110110 !
09
17
1%
#550000
b110111 !
19
0%
#560000
b111111 !
b111011 !
b111001 !
b111000 !
09
07
0;
1<
1%
0=
0E
05
0$
#570000
b111001 !
19
0%
#580000
b111011 !
b111010 !
09
17
1%
#590000
b111011 !
19
0%
#600000
b11 #
b111111 !
b111101 !
b111100 !
09
07
1;
16
1%
1:
1=
1C
1A
0C
1E
15
1$
#610000
b111101 !
19
0%
#620000
b111111 !
b111110 !
09
17
1%
#630000
b111111 !
19
0%
#640000
b1111111 !
b1011111 !
b1001111 !
b1000111 !
b1000011 !
b1000001 !
b1000000 !
09
07
0;
0<
0?
0>
1@
1%
0=
0E
05
0$
#650000
b1000001 !
19
0%
#660000
b1000011 !
b1000010 !
09
17
1%
#670000
b1000011 !
19
0%
#680000
b1000111 !
b1000101 !
b1000100 !
09
07
1;
1%
#690000
b1000101 !
19
0%
#700000
b1000111 !
b1000110 !
09
17
1%
#710000
b1000111 !
19
0%
#720000
b1001111 !
b1001011 !
b1001001 !
b1001000 !
09
07
0;
1<
1%
1=
1E
15
1$
#730000
b1001001 !
19
0%
#740000
b1001011 !
b1001010 !
09
17
1%
#750000
b1001011 !
19
0%
#760000
b1001111 !
b1001101 !
b1001100 !
09
07
1;
1%
#770000
b1001101 !
19
0%
#780000
b1001111 !
b1001110 !
09
17
1%
#790000
b1001111 !
19
0%
#800000
b111 #
b101 #
b100 #
b1011111 !
b1010111 !
b1010011 !
b1010001 !
b1010000 !
09
07
0;
0<
1?
06
08
1D
1%
0:
1C
0E
0=
05
0$
1E
15
1$
#810000
b1010001 !
19
0%
1:
1=
#820000
b1010011 !
b1010010 !
09
17
1%
0:
0=
#830000
b1010011 !
19
0%
1:
1=
#840000
b1010111 !
b1010101 !
b1010100 !
09
07
1;
1%
0:
0=
#850000
b1010101 !
19
0%
1:
1=
#860000
b1010111 !
b1010110 !
09
17
1%
0:
0=
#870000
b1010111 !
19
0%
1:
1=
#880000
b1011111 !
b1011011 !
b1011001 !
b1011000 !
09
07
0;
1<
1%
0:
0=
#890000
b1011001 !
19
0%
1:
1=
#900000
b1011011 !
b1011010 !
09
17
1%
0:
0=
#910000
b1011011 !
19
0%
1:
1=
#920000
b1011111 !
b1011101 !
b1011100 !
09
07
1;
1%
0:
0=
#930000
b1011101 !
19
0%
1:
1=
#940000
b1011111 !
b1011110 !
09
17
1%
0:
0=
#950000
b1011111 !
19
0%
1:
1=
#960000
b1111111 !
b1101111 !
b1100111 !
b1100011 !
b1100001 !
b1100000 !
09
07
0;
0<
0?
1>
1%
0:
0A
0=
0C
0E
05
0$
#970000
b1100001 !
19
0%
1:
1=
#980000
b1100011 !
b1100010 !
09
17
1%
0:
0=
#990000
b1100011 !
19
0%
1:
1=
