Practical-04-Combinational Logic 3-Behavioural/Task01-03_if_statements_and_std_logic/simulation/qsim/behavioural.msim.vcd
$comment
	File created using the following command:
		vcd file behavioural.msim.vcd -direction
$end
$date
	Tue Oct 21 10:43:27 2014
$end
$version
	ModelSim Version 10.1d
$end
$timescale
	1ps
$end
$scope module behavioural_vlg_vec_tst $end
$var reg 16 ! A [15:0] $end
$var reg 16 " B [15:0] $end
$var reg 1 # EN $end
$var reg 2 $ mode [1:0] $end
$var wire 1 % Y [15] $end
$var wire 1 & Y [14] $end
$var wire 1 ' Y [13] $end
$var wire 1 ( Y [12] $end
$var wire 1 ) Y [11] $end
$var wire 1 * Y [10] $end
$var wire 1 + Y [9] $end
$var wire 1 , Y [8] $end
$var wire 1 - Y [7] $end
$var wire 1 . Y [6] $end
$var wire 1 / Y [5] $end
$var wire 1 0 Y [4] $end
$var wire 1 1 Y [3] $end
$var wire 1 2 Y [2] $end
$var wire 1 3 Y [1] $end
$var wire 1 4 Y [0] $end
$var wire 1 5 sampler $end
$scope module i1 $end
$var wire 1 6 gnd $end
$var wire 1 7 vcc $end
$var wire 1 8 unknown $end
$var tri1 1 9 devclrn $end
$var tri1 1 : devpor $end
$var tri1 1 ; devoe $end
$var wire 1 < Y[15]~output_o $end
$var wire 1 = Y[14]~output_o $end
$var wire 1 > Y[13]~output_o $end
$var wire 1 ? Y[12]~output_o $end
$var wire 1 @ Y[11]~output_o $end
$var wire 1 A Y[10]~output_o $end
$var wire 1 B Y[9]~output_o $end
$var wire 1 C Y[8]~output_o $end
$var wire 1 D Y[7]~output_o $end
$var wire 1 E Y[6]~output_o $end
$var wire 1 F Y[5]~output_o $end
$var wire 1 G Y[4]~output_o $end
$var wire 1 H Y[3]~output_o $end
$var wire 1 I Y[2]~output_o $end
$var wire 1 J Y[1]~output_o $end
$var wire 1 K Y[0]~output_o $end
$var wire 1 L mode[1]~input_o $end
$var wire 1 M mode[0]~input_o $end
$var wire 1 N A[15]~input_o $end
$var wire 1 O B[15]~input_o $end
$var wire 1 P inst|P~0_combout $end
$var wire 1 Q EN~input_o $end
$var wire 1 R A[14]~input_o $end
$var wire 1 S B[14]~input_o $end
$var wire 1 T inst|P~1_combout $end
$var wire 1 U A[13]~input_o $end
$var wire 1 V B[13]~input_o $end
$var wire 1 W inst|P~2_combout $end
$var wire 1 X B[12]~input_o $end
$var wire 1 Y A[12]~input_o $end
$var wire 1 Z inst|P~3_combout $end
$var wire 1 [ B[11]~input_o $end
$var wire 1 \ A[11]~input_o $end
$var wire 1 ] inst|P~4_combout $end
$var wire 1 ^ A[10]~input_o $end
$var wire 1 _ B[10]~input_o $end
$var wire 1 ` inst|P~5_combout $end
$var wire 1 a B[9]~input_o $end
$var wire 1 b A[9]~input_o $end
$var wire 1 c inst|P~6_combout $end
$var wire 1 d A[8]~input_o $end
$var wire 1 e B[8]~input_o $end
$var wire 1 f inst|P~7_combout $end
$var wire 1 g B[7]~input_o $end
$var wire 1 h A[7]~input_o $end
$var wire 1 i inst|P~8_combout $end
$var wire 1 j B[6]~input_o $end
$var wire 1 k A[6]~input_o $end
$var wire 1 l inst|P~9_combout $end
$var wire 1 m B[5]~input_o $end
$var wire 1 n A[5]~input_o $end
$var wire 1 o inst|P~10_combout $end
$var wire 1 p A[4]~input_o $end
$var wire 1 q B[4]~input_o $end
$var wire 1 r inst|P~11_combout $end
$var wire 1 s A[3]~input_o $end
$var wire 1 t B[3]~input_o $end
$var wire 1 u inst|P~12_combout $end
$var wire 1 v A[2]~input_o $end
$var wire 1 w B[2]~input_o $end
$var wire 1 x inst|P~13_combout $end
$var wire 1 y B[1]~input_o $end
$var wire 1 z A[1]~input_o $end
$var wire 1 { inst|P~14_combout $end
$var wire 1 | B[0]~input_o $end
$var wire 1 } A[0]~input_o $end
$var wire 1 ~ inst|P~15_combout $end
$upscope $end
$upscope $end
$enddefinitions $end
#0
$dumpvars
b100000011110110 !
b1111110011100 "
1#
b0 $
z4
z3
z2
z1
z0
z/
z.
z-
z,
z+
z*
z)
z(
z'
z&
z%
x5
06
17
x8
19
1:
1;
z<
z=
z>
z?
z@
zA
zB
zC
zD
zE
zF
zG
zH
zI
zJ
zK
0L
0M
0N
0O
0P
1Q
1R
0S
0T
0U
0V
0W
1X
0Y
0Z
1[
0\
0]
0^
1_
0`
1a
0b
0c
0d
1e
0f
1g
1h
1i
0j
1k
0l
0m
1n
0o
1p
1q
1r
0s
1t
0u
1v
1w
1x
0y
1z
0{
0|
0}
0~
$end
#20000
b1100000011110110 !
b1000000011110110 !
b1001000011110110 !
b1001100011110110 !
b1001110011110110 !
b1001110111110110 !
b1001110110110110 !
b1001110110010110 !
b1001110110000110 !
b1001110110001110 !
b1001110110001010 !
b1001110110001011 !
b1001111110011100 "
b1011111110011100 "
b1011011110011100 "
b1011001110011100 "
b1011000110011100 "
b1011000010011100 "
b1011000000011100 "
b1011000000111100 "
b1011000000101100 "
b1011000000100100 "
b1011000000100000 "
b1011000000100001 "
1|
0w
0t
0q
1m
0g
0e
0a
0_
0[
1V
1O
1}
0v
1s
0p
0n
0k
1d
1^
1\
1Y
0R
1N
05
1~
0x
0r
0i
1P
1Z
#40000
b1001111110001011 !
b1001111100001011 !
b1111000000100001 "
b1111000000100011 "
0#
b1111100001011 !
b101111100001011 !
b100111100001011 !
b100011100001011 !
b100001100001011 !
b100001100101011 !
b100001100111011 !
b100001100110011 !
b100001100110111 !
b100001100110110 !
b111000000100011 "
b111000010100011 "
b111000010110011 "
b111000010110111 "
b111000010110110 "
0|
1y
1w
1q
1g
1S
0O
0}
1v
0s
1p
1n
0h
1b
0^
0\
0Y
1R
0N
0Q
15
1<
0=
0>
1?
0@
0A
0B
0C
0D
0E
0F
0G
0H
0I
0J
1K
1%
0&
0'
1(
0)
0*
0+
0,
0-
0.
0/
00
01
02
03
14
0~
1{
1x
1r
1T
0P
1o
0Z
0K
1J
1I
1G
1=
0<
1F
0?
04
13
12
10
1&
0%
1/
0(
#60000
b100001100110100 !
b100001000110100 !
b100001001110100 !
b111100010110110 "
b111110010110110 "
b111110010111110 "
b100000001110100 !
b11110010111110 "
b11110010111100 "
b1110100 !
b100001110100 !
b100001010100 !
b1011110010111100 "
b1011110010101100 "
0y
1t
0q
1_
1[
0S
1O
0z
0n
1k
0d
0b
1\
0R
05
0{
0r
1]
0T
0o
0J
0G
1@
0=
0F
03
00
1)
0&
0/
#80000
b10100001010100 !
b1011110010001100 "
b10100011010100 !
b1010100011010100 !
b1011100011010100 !
b1011110011010100 !
b1011110011010000 !
b1011110010001000 "
b1011110010001001 "
b1011110011010010 !
b1011110111010010 !
b1011110110010010 !
b1011110010000001 "
b1111110010000001 "
b1011010110010010 !
b1111110010010001 "
1|
0w
0t
1q
0m
1S
1z
0v
0k
1h
1d
1^
0\
1Y
1U
1N
15
0x
1r
1i
1`
0]
1Z
1W
1P
0I
1G
1D
1A
0@
1?
1>
1<
02
10
1-
1*
0)
1(
1'
1%
#100000
b1110110010010001 "
b1110110011010001 "
b1110110111010001 "
b1011010110011010 !
b1110110101010001 "
b1011011110011010 !
b1111011110011010 !
b1101011110011010 !
b1110110101110001 "
b1110110101110000 "
b1110110101111000 "
b1010110101111000 "
1s
1b
0U
1R
0|
1t
1m
1j
0g
1e
0X
0S
05
1u
0W
0i
1f
0Z
1H
0>
0D
1C
0?
11
0'
0-
1,
0(
#120000
b1101011110001010 !
b1101011110001011 !
b1010100101111000 "
b1010100101111010 "
b10100101111010 "
b1101011100001011 !
b101011100001011 !
b100011100001011 !
b100001100001011 !
b100001100001001 !
b100001000001001 !
b100101000001001 !
b10100101101010 "
b11100101101010 "
b11100100101010 "
b11100000101010 "
b11100010101010 "
b101000001001 !
b11100010101011 "
b111100010101011 "
1|
1y
0q
0j
1g
0e
0_
1X
1S
0O
1}
0z
0p
0h
0d
0^
1\
0Y
0R
0N
15
1~
0r
0f
0`
0P
1]
1K
0G
0C
0A
0<
1@
14
00
0,
0*
0%
1)
#140000
b101100010101011 "
b101101010101011 "
b101000101001 !
b101000101101 !
b101101010101111 "
b101001101101 !
b100001101101 !
b101101010100111 "
b100011101101 !
b1000100011101101 !
b1001100011101101 !
b1001100011101111 !
b1001100111101111 !
b1001000111101111 !
b100101010100111 "
b100101110100111 "
1z
1v
1n
1k
1h
1d
0b
0\
1Y
1N
1w
0t
1e
1a
0X
0V
05
1{
1x
1o
1i
1f
0]
0u
1J
1I
1F
1D
1C
0@
0H
13
12
1/
1-
1,
0)
01
#160000
b1001000111100111 !
b100101110000111 "
b100101110000101 "
b1100101110000101 "
b1001010111100111 !
b1100101110010101 "
b1100101100010101 "
b1000101100010101 "
b1010101100010101 "
b1001010111100011 !
b1010101100010001 "
b1001010110100011 !
b1001010100100011 !
b1000010100100011 !
b1000010100100001 !
b1000010000100001 !
0y
0w
1q
0m
0g
1V
0S
1O
0z
0v
0s
0k
0h
0d
1^
0Y
15
0{
0x
0o
0i
1P
0f
0J
0I
0F
0D
1<
0C
03
02
0/
0-
1%
0,
#180000
b1010010000100001 !
b1010111100010001 "
b1010111101010001 "
b1011111101010001 "
b1011111001010001 "
b1010010000101001 !
b1011111001010011 "
b1010000000101001 !
b1011111001000011 "
b1001111001000011 "
b1001111001000111 "
b1010000001101001 !
b1010000001101011 !
b1010000101101011 !
1y
1w
0q
1j
0e
1_
1X
0V
1z
1s
1k
1d
0^
1U
05
1{
1l
1J
1E
13
1.
#200000
b1 $
b1001111001000110 "
b1001110001000110 "
b1010000101001011 !
b1010100101001011 !
b1010100101001111 !
b1000100101001111 !
b1001100001000110 "
b1001100001010110 "
b1011100001010110 "
1v
0n
1\
0U
0|
1q
0a
0_
1V
1M
15
1x
1]
1W
1r
1u
1f
1Z
1I
1@
1>
1G
1H
1C
1?
12
1)
1'
10
11
1,
1(
#220000
b1000100101011111 !
b11100001010110 "
b11100011010110 "
b1000100111011111 !
b1001100111011111 !
b11100111010110 "
b1001100111010111 !
b11100111010100 "
b11100111010000 "
b1001100110010111 !
b1001000110010111 !
b1001000110010011 !
b11110111010000 "
b1110111010000 "
0y
0w
1g
1e
1_
0V
0O
0v
0s
1p
0k
1h
0\
1Y
05
0x
1i
1`
0W
0u
0I
1D
1A
0>
0H
02
1-
1*
0'
01
#240000
b1001000110010010 !
b1001001110010010 !
b1001110010010 !
b110111010000 "
b1011110010010 !
b1011010010010 !
b110111010001 "
b111111010001 "
b111111000001 "
b1011010000010 !
b1000111111000001 "
b1011010001010 !
b1011011001010 !
b1010111111000001 "
1|
0q
1a
0X
1V
1O
0}
1s
0p
1k
0d
1b
1^
0N
15
0r
1c
1W
1u
0G
1B
1>
1H
00
1+
1'
11
#260000
b1010111111001001 "
b1011011001000 !
b11011011001000 !
b11011001001000 !
b1010111011001001 "
b1010111011001011 "
b1010111011001111 "
b11011001001100 !
b1010101011001111 "
b11010001001100 !
b1011101011001111 "
b1011101011001110 "
b1011100011001110 "
b11100011001110 "
b11010001000100 !
b11010000000100 !
b1100011001110 "
0z
1v
0s
0k
0h
0b
1U
0|
1y
1w
1t
0e
0a
0_
1X
0V
0O
05
1x
0c
0~
0f
0P
1I
0B
0K
0C
0<
12
0+
04
0,
0%
#280000
b1000011001110 "
b111010000000100 !
b1000011101110 "
b111010000100100 !
b1000001101110 "
b110010000100100 !
b110110000100100 !
b110110000100101 !
b1110110000100101 !
b1110110100100101 !
b1000001100110 "
b1100110100100101 !
b1000001100010 "
b1100110100100001 !
b1100111100100001 !
b1001000001100010 "
b1011000001100010 "
1}
0v
1n
1d
1b
1\
0Y
0U
1R
1N
0w
0t
1m
0g
0[
1V
1O
15
1~
0x
1o
1f
1c
1T
1P
0u
0i
1K
0I
1F
1C
1B
1=
1<
0H
0D
14
02
1/
1,
1+
1&
1%
01
0-
#300000
b1111000001100010 "
b1100111110100001 !
b1111000101100010 "
b1100111111100001 !
b1111100101100010 "
b1000111111100001 !
b1000111111000001 !
b1001111111000001 !
b1001111111000000 !
b1111111000000 !
b1111100101101010 "
b1111100101101110 "
b1110111000000 !
b1101100101101110 "
0}
0n
1k
1h
0b
1Y
0R
0N
1w
1t
1e
1[
0V
1S
05
0~
1i
0c
1x
1u
0W
0K
1D
0B
1I
1H
0>
04
1-
0+
12
11
0'
#320000
b1100111000000 !
b1101100101111110 "
b1100111010000 !
b1100111010010 !
b1101101101111110 "
b1100111011010 !
b1101101101011110 "
b1101101111011110 "
b1000111011010 !
b1000011011010 !
b11000011011010 !
b11000011111010 !
b10000011111010 !
b10000011111011 !
b1010000011111011 !
b1101101111010110 "
b1010001011111011 !
0t
1q
0m
1g
1a
1}
1z
1s
1p
1n
0d
1b
0^
0\
0Y
1U
1N
15
1r
1c
1~
0`
1W
1G
1B
1K
0A
1>
10
1+
14
0*
1'
#340000
b1101101110010110 "
b1101101110010100 "
b1101111110010100 "
b1101111110010101 "
b101111110010101 "
b1111110010101 "
b1011110010101 "
b1011110010001 "
b1010011011111011 !
b1010011011101011 !
b1010011011101001 !
b1010011011100001 !
b1011110110001 "
b1011100110001 "
b1010111011100001 !
b1000111011100001 !
b1000111011100000 !
b111011100000 !
b1011100111001 "
0}
0z
0s
0p
1^
1\
0U
0N
1|
0y
0w
1t
1m
0j
0g
1_
0[
0S
0O
05
0{
1`
0W
0P
0x
0T
0J
1A
0>
0<
0I
0=
03
1*
0'
0%
02
0&
#360000
b11100111001 "
b111010100000 !
b100111010100000 !
b10011100111001 "
b100111110100000 !
b100111110000000 !
b100110110000000 !
b10011100111011 "
b10001100111011 "
b10001100111010 "
b10101100111010 "
b100110110010000 !
b100110110011000 !
b10101100011010 "
b1100110110011000 !
b10101100010010 "
1s
1p
0n
0k
1d
0b
1R
1N
0|
1y
0t
0m
0_
1[
0X
1V
15
0o
0l
1T
1P
0~
1{
0Z
1W
0F
0E
1=
1<
0K
1J
0?
1>
0/
0.
1&
1%
04
13
0(
1'
#380000
b1100110110011100 !
b10101000010010 "
b10101000000010 "
b10100000000010 "
b10100001000010 "
b1100110110011101 !
b1000110110011101 !
b100001000010 "
b1000110110111101 !
b1000111110111101 !
b110001000010 "
b110001000011 "
b10001000011 "
b1000111110101101 !
b1000111110100101 !
b111110100101 !
1|
0q
1j
0e
0a
1_
0[
0V
1}
1v
0s
0p
1n
1b
0R
0N
05
1~
0r
1l
0W
1x
0u
1o
0T
0P
1K
0G
1E
0>
1I
0H
1F
0=
0<
14
00
1.
0'
12
01
1/
0&
0%
#400000
b11 $
b10 $
b1111110100101 !
b1000010001000011 "
b1100010001000011 "
b1100010001000111 "
b1011110100101 !
b11011110100101 !
b1101010001000111 "
b1101010001010111 "
b1101011001010111 "
b1101011000010111 "
b11011110100100 !
b111011110100100 !
b1111011000010111 "
b111011110000100 !
b111010110000100 !
b1111001000010111 "
1w
1q
0j
1a
0_
1X
1V
1S
1O
0}
0n
0b
0\
1Y
1U
1R
0M
1L
15
0x
1r
0l
1P
0o
0]
0I
1G
0E
1<
0F
0@
02
10
0.
1%
0/
0)
#420000
b111010100000100 !
b1111001000110111 "
b1111001000111111 "
b111010100000000 !
b1111001100111111 "
b111010100010000 !
b1111010100010000 !
b1011001100111111 "
b1011001100111011 "
b1101010100010000 !
b1101010100010001 !
b1001010100010001 !
b1001010100110001 !
b1001011100110001 !
0w
1t
1m
1e
0S
1}
0v
1p
1n
0h
1b
0U
0R
1N
05
1u
0f
0~
0r
0i
0c
1W
0P
1H
0C
0K
0G
0D
0B
1>
0<
11
0,
04
00
0-
0+
1'
0%
#440000
b1011001110111011 "
b1001011101110001 !
b1011101110111011 "
b1010101110111011 "
b1010101110101011 "
b1010100110101011 "
b1010100111101011 "
b1000100111101011 "
b1001011111110001 !
b1000100111001011 "
b1000100111000011 "
b1001011111110101 !
b1011111110101 !
b1000100111000111 "
b11011111110101 !
b11011111110100 !
0}
1v
1k
1h
1U
0N
1w
0t
0q
0m
1j
1g
0a
1[
0X
0V
15
1~
1P
0u
1r
1o
1c
1]
1Z
1K
1<
0H
1G
1F
1B
1@
1?
14
1%
01
10
1/
1+
1)
1(
#460000
b11001111110100 !
b10001111110100 !
b10101111110100 !
b1000110111000111 "
b1000110011000111 "
b1100110011000111 "
b110101111110100 !
b110101111010100 !
b110100111010100 !
b110100110010100 !
b1100010011000111 "
b1101010011000111 "
b1101010010000111 "
b1111010010000111 "
b110100100010100 !
b1111010010001111 "
1t
0j
0e
1_
0[
1X
1V
1S
0n
0k
0h
0b
0^
1\
0Y
1R
05
1u
1f
0W
0o
1i
0c
1H
1C
0>
0F
1D
0B
11
1,
0'
0/
1-
0+
#480000
b110100100010110 !
b110100000010110 !
b1111010010001101 "
b1111010010001100 "
b111010010001100 "
b110100000000110 !
b111010010011100 "
b111010010111100 "
b100100000000110 !
b100000000000110 !
b11010010111100 "
b100000000100110 !
b100001000100110 !
b11110010111100 "
b10110010111100 "
b10110011111100 "
b10110011110100 "
0|
0y
0t
1q
1m
1j
1[
0X
0S
0O
1z
0p
1n
0d
1b
0\
0U
15
0~
0u
1l
0Z
1T
0P
0f
1c
1W
0K
0H
1E
0?
1=
0<
0C
1B
1>
04
01
1.
0(
1&
0%
0,
1+
1'
#500000
b10110001110100 "
b10111001110100 "
b1100001000100110 !
b10111001110000 "
b1101001000100110 !
b10101001110000 "
b1001001000100110 !
b1001001001100110 !
b1001001001100100 !
b10101001110001 "
b1001001001110100 !
b10101001100001 "
b1001101001110100 !
b1001101001010100 !
b10001001100001 "
b10001000100001 "
b10001000101001 "
0z
1p
0n
1k
1\
1Y
0R
1N
1|
0w
1t
0q
0j
0g
1a
0_
0[
05
0{
1o
1Z
0T
1P
1~
1x
1u
0i
0c
0`
0J
1F
1?
0=
1<
1K
1I
1H
0D
0B
0A
03
1/
1(
0&
1%
14
12
11
0-
0+
0*
#520000
b1001101001011100 !
b1001101001011101 !
b1000101001 "
b1001101011011101 !
b1011101011011101 !
b101001 "
b11101011011101 !
b101101 "
b10000101101 "
b111101011011101 !
b111101011011111 !
b10000101100 "
b10000111100 "
b111001011011111 !
b111001011111111 !
b10000110100 "
0|
1w
0t
1q
0a
1_
0V
1}
1z
1s
1n
1h
0\
1U
1R
0N
15
0x
0r
1c
1`
1{
0o
1i
0]
1T
0P
0I
0G
1B
1A
1J
0F
1D
0@
1=
0<
02
00
1+
1*
13
0/
1-
0)
1&
0%
#540000
b111001011111011 !
b10000110110 "
b1000010000110110 "
b1100010000110110 "
b110001011111011 !
b110001010111011 !
b1100110000110110 "
b1100110001110110 "
b110001010111010 !
b110001000111010 !
b1100111001110110 "
b1100111001110010 "
b10001000111010 !
b10001000011010 !
b1100111001111010 "
1y
0w
1t
1j
1a
1[
1S
1O
0}
0v
0n
0k
0h
0Y
0R
05
0{
0u
0c
1]
1P
0~
1o
0i
0Z
0J
0H
0B
1@
1<
0K
1F
0D
0?
03
01
0+
1)
1%
04
1/
0-
0(
#560000
b10001100011010 !
b10000100011010 !
b1101111001111010 "
b1111111001111010 "
b1010000100011010 !
b1010000100011000 !
b1010100100011000 !
b1010100100011100 !
b1111111001111000 "
b111111001111000 "
b11111001111000 "
b1011100100011100 !
b1011100101011100 !
b11011001111000 "
b1011100111011100 !
b11010001111000 "
b11010001111100 "
0y
1w
0a
0[
1X
1V
0S
0O
0z
1v
1k
1h
1d
0b
1\
1Y
1N
15
0W
0T
0l
1i
1f
0>
0=
0E
1D
1C
0'
0&
0.
1-
1,
#580000
b11010101111100 "
b11010101011100 "
b1011100111010100 !
b1001100111010100 !
b11010101011101 "
b1001100111010101 !
b1001101111010101 !
b1010101011101 "
b1001101111010111 !
b1001010101011101 "
b1101010101011101 "
b1000101111010111 !
b1101110101011101 "
1}
1z
0s
1b
0Y
0U
1|
0m
1e
1[
0V
1S
1O
05
1{
1u
1c
1Z
0o
0f
0]
1T
0P
1J
1H
1B
1?
0F
0C
0@
1=
0<
13
11
1+
1(
0/
0,
0)
1&
0%
#600000
b11 $
b1101100101011101 "
b1101100101001101 "
b1100101111010111 !
b1100101111110111 !
b1101100101000101 "
b1100101011110111 !
b1100100101000101 "
b100101011110111 !
b1100100101000111 "
b100101010110111 !
b1100100101100111 "
b100101010111111 !
b100101010111110 !
b100101010111100 !
b101101010111100 !
0}
0z
1s
1n
0k
0d
1Y
1R
0N
1y
0t
0q
1m
0_
0X
1M
15
0{
0u
0Z
0T
0`
0i
0c
0J
0H
0?
0=
0A
0D
0B
03
01
0(
0&
0*
0-
0+
#620000
b101111010111100 !
b1100100100100111 "
b101111010111000 !
b101111000111000 !
b101110000111000 !
b1110100100100111 "
b1010100100100111 "
b1010110100100111 "
b101110000011000 !
b1010110100101111 "
b101110100011000 !
b1011110100101111 "
b1101110100011000 !
b1011110100101101 "
b1011110100001101 "
b1101110100011010 !
b1100110100011010 !
0y
1t
0m
0j
1_
1X
1V
0S
1z
0v
0n
0h
1d
0b
1^
0Y
1N
05
#640000
b1011111100001101 "
b1011111100001001 "
b1011111000001001 "
b1110110100011010 !
b1011111000001000 "
b1011011000001000 "
b1010110100011010 !
b1010110100010010 !
b1010100100010010 !
b1010100110010010 !
b1111011000001000 "
b1111011000000000 "
b1010100010010010 !
b1110011000000000 "
b1110011000000010 "
b1110011000100010 "
0s
1h
0d
0^
1U
0R
0|
1y
0w
0t
1m
0e
1a
0[
0X
1S
15
#660000
b1110011010100010 "
b1010100010000010 !
b1010000010000010 !
b110011010100010 "
b1010000011000010 !
b1010000011000011 !
b110011011100010 "
b1010000011000111 !
b1010001011000111 !
b110001011100010 "
b1010001011000101 !
b1011001011000101 !
b110001111100010 "
b1111001011000101 !
b1111001011001101 !
b10001111100010 "
b11001111100010 "
b11001111000010 "
1}
0z
1v
1s
0p
1k
1b
0\
1Y
1R
0m
1j
1g
1e
0_
1X
0S
0O
05
#680000
b11001111010010 "
b1001111010010 "
b1000111010010 "
b1101001011001101 !
b1100111010010 "
b1101001001001101 !
b1100111011010 "
b1101001101001101 !
b1100111011000 "
b1100101011000 "
b1101101101001101 !
b1001100101011000 "
b1101101100001101 !
b1101101100001100 !
b1001100100011000 "
b1101101100001000 !
b1101100100001000 !
b1001110100011000 "
b1101100100001010 !
b1001110000011000 "
b1101100100000010 !
0}
1z
0v
0s
0k
0h
1d
0b
1\
0U
0y
1t
1q
0j
0g
0e
0a
1_
1[
0V
1O
15
#700000
b1001110000011001 "
b1101110100000010 !
b1000110000011001 "
b1000110000111001 "
b1000110000101001 "
b1010110000101001 "
b1010111000101001 "
b1010011000101001 "
b1101110110000010 !
b1010011000100001 "
b1101110010000010 !
b1010011000100011 "
b1101010010000010 !
b10011000100011 "
b1101010010000011 !
b10011001100011 "
b1101010010000111 !
b10011101100011 "
1}
1v
1h
0d
1^
0\
1|
1y
0t
0q
1m
1j
1e
1a
0[
0X
1V
0O
05
#720000
b10011101100111 "
b1101010010010111 !
b1111010010010111 !
b10011111100111 "
b1111011010010111 !
b10001111100111 "
b1111011010010101 !
b10001111100110 "
b11001111100110 "
b11001111000110 "
b11001111010110 "
b11101111010110 "
b11101111011110 "
b1111011110010101 !
b11101111011100 "
b1111011110010001 !
b11101011011100 "
0z
0v
1p
1d
1b
1U
0|
0y
1w
1t
1q
0m
1g
0e
0_
1[
1X
15
#740000
b1111011110110001 !
b111011110110001 !
b110011110110001 !
b110001110110001 !
b1101011011100 "
b1100011011100 "
b110001100110001 !
b110101100110001 !
b110101100110000 !
b1100010011100 "
b110101100100000 !
b1100000011100 "
b110101100100010 !
b1100000001100 "
b1000000001100 "
0q
0j
0g
0a
0[
0V
0}
1z
0p
1n
0h
0^
1\
0Y
0N
05
#760000
b10101100100010 !
b10101100101010 !
b1001000000001100 "
b10100100101010 !
b1001010000001100 "
b1001010000001101 "
b1000010000001101 "
b1000010000000101 "
b10100000101010 !
b1000010000000111 "
b10100000101110 !
b10100000001110 !
b1010100000001110 !
b1000011000000111 "
b1010100010001110 !
b1010000010001110 !
b1000011010000111 "
b1000011010010111 "
b1000111010010111 "
1|
1y
0t
1q
1g
1a
1_
1[
0X
1O
1v
1s
0n
1h
0d
0b
0\
0R
1N
15
#780000
b1010000011001110 !
b1000111010010011 "
b1000000011001110 !
b1000111010110011 "
b1000111110110011 "
b1001000011001110 !
b1001010011001110 !
b1001010011001111 !
b1000111111110011 "
b1001010011011111 !
b1001010011011101 !
b1101010011011101 !
b1101010011010101 !
b1000111111110010 "
b1000111111110000 "
b1101010011110101 !
b1101010001110101 !
b1000111111100000 "
b1000011111100000 "
0|
0y
0w
0q
1m
1j
1e
0[
1}
0z
0s
1p
1n
1k
0h
1^
1Y
0U
1R
05
#800000
b1 $
b0 $
b1010011111100000 "
b1101011001110101 !
b1010001111100000 "
b1101011101110101 !
b101011101110101 !
b101011100110101 !
b101011100110100 !
b1010001110100000 "
b1010001110100001 "
b101011110110100 !
b1010101110100001 "
0}
0k
1h
1d
1b
0N
1|
0j
0_
1[
1V
0M
0L
15
1i
1f
1c
1o
1D
1C
1B
1F
1-
1,
1+
1/
#820000
b1010101110101001 "
b111011110110100 !
b1010101110001001 "
b111011110100100 !
b11011110100100 !
b11011110101100 !
b11011110001100 !
b1010101110011001 "
b1000101110011001 "
b11011111001100 !
b1000101111011001 "
b11011101001100 !
b1000001111011001 "
1s
0p
0n
1k
0h
1U
0R
1t
1q
0m
1j
0[
0V
05
1u
0o
1l
0i
1H
0F
1E
0D
11
0/
1.
0-
#840000
b1100001111011001 "
b1101001111011001 "
b11011101001000 !
b1101000111011001 "
b1101000101011001 "
b1101000101011101 "
b11001101001000 !
b11000101001000 !
b1101010101011101 "
b11000001001000 !
b1101010101010101 "
b11000001101000 !
b1101010100010101 "
0v
1n
0d
0b
0^
1w
0t
0j
0g
0a
1_
1X
1S
15
0f
0c
0u
0l
1Z
0C
0B
0H
0E
1?
0,
0+
01
0.
1(
#860000
b11100001101000 !
b10100001101000 !
b10100001101010 !
b1101010100010111 "
b1010100001101010 !
b1000100001101010 !
b1101010100110111 "
b1000100011101010 !
b1101110100110111 "
b1101111100110111 "
b1101111110110111 "
1y
1m
1g
1a
1[
1z
1h
1\
0Y
0U
1N
05
1{
1o
1i
1]
0Z
1P
1J
1F
1D
1@
0?
1<
13
1/
1-
1)
0(
1%
#880000
b1101111010110111 "
b1000100011101011 !
b1100100011101011 !
b1101111010100111 "
b1100100010101011 !
b1001111010100111 "
b1100100010101111 !
b1001111010100011 "
b1100101010101111 !
b1100101010001111 !
b1100001010001111 !
b1101001010001111 !
b1101001010001101 !
b1001111010100001 "
b101001010001101 !
b101001000001101 !
b1001011010100001 "
1}
0z
1v
0n
0k
0h
1b
0\
1Y
1R
0N
0y
0w
0q
0e
0[
0S
15
1~
0{
0o
0i
1c
0]
1Z
0P
1K
0J
0F
0D
1B
0@
1?
0<
14
03
0/
0-
1+
0)
1(
0%
#900000
b101001000011101 !
b1011011010100001 "
b1010011010100001 "
b101001100011101 !
b1010011011100001 "
b111001100011101 !
b1010011011000001 "
b1010010011000001 "
b1010010111000001 "
b111001100011100 !
b111001101011100 !
b111001101011000 !
b111000101011000 !
b111000101111000 !
b111100101111000 !
b110100101111000 !
b110100101111010 !
b1010010111000011 "
b110100111111010 !
b1010110111000011 "
1y
0m
1j
1e
0a
1[
0X
1V
0}
1z
0v
1p
1n
1k
1h
1d
0b
1\
0Y
1U
05
1{
1l
1f
0c
1]
0Z
1W
0~
1i
1J
1E
1C
0B
1@
0?
1>
0K
1D
13
1.
1,
0+
1)
0(
1'
04
1-
#920000
b10110111000011 "
b10110111000010 "
b110100111110010 !
b10100111000010 "
b10100111001010 "
b10100111011010 "
b110100111011010 "
b110100111011110 "
b1110100111110010 !
b1110100111100010 !
b111100111011110 "
b1110100011100010 !
b111100110011110 "
b111100010011110 "
b1110000011100010 !
0s
0p
0d
0\
1N
0|
1w
1t
1q
0j
0e
0_
1X
1S
0O
15
0f
0]
0l
1T
0C
0@
0E
1=
0,
0)
0.
1&
#940000
b1110010011100010 !
b111100000011110 "
b1100010011100010 !
b111101000011110 "
b1100010011000010 !
b1101010011000010 !
b1101010001000010 !
b1111101000011110 "
b1101010001001010 !
b1111111000011110 "
b1011111000011110 "
0g
1a
1_
0S
1O
1s
0n
0h
1^
1Y
0U
05
0i
1`
0T
1P
1u
1Z
0W
0D
1A
0=
1<
1H
1?
0>
0-
1*
0&
1%
11
1(
0'
#960000
b1001010001001010 !
b1001111000011110 "
b1001010001001011 !
b1001010000001011 !
b1001010000001001 !
b1001111000011100 "
b1001111000010100 "
b1001111000010000 "
b1010000001001 !
b1010000011001 !
b1000111000010000 "
b1000111100010000 "
b1000110100010000 "
b10000011001 !
b110100010000 "
b100110100010000 "
0y
0w
0t
1e
0a
0X
0V
1S
0O
1}
0z
1p
0k
0Y
0R
0N
15
0{
0u
0Z
0P
1r
0J
0H
0?
0<
1G
03
01
0(
0%
10
#980000
b10000011101 !
b100110100010001 "
b100110100000001 "
b10100011101 !
b100110101000001 "
b100011101 !
b10000100011101 !
b10000110011101 !
b10000110010101 !
b100100101000001 "
b110100101000001 "
b10000110010100 !
b110100101000101 "
b1010000110010100 !
b110101101000101 "
b1011000110010100 !
1|
1w
0q
1j
1a
0_
1V
0}
1v
0s
1h
1d
0^
1Y
1U
1N
05
1x
0r
0`
1W
1f
1I
0G
0A
1>
1C
12
00
0*
1'
1,
